<svg width="70" height="70" viewBox="0 0 70 70" fill="none" xmlns="http://www.w3.org/2000/svg">
<path fill-rule="evenodd" clip-rule="evenodd" d="M27.6668 55.4596C27.3705 55.4596 27.1169 55.4596 26.8634 55.4596C20.1608 55.4596 13.4582 55.4596 6.75566 55.4596C4.95882 55.4596 4.06641 54.5723 4.06641 52.7875C4.06641 41.8883 4.06641 30.9891 4.06641 20.0899C4.06641 18.3341 4.96226 17.4314 6.70085 17.4297C7.16847 17.428 7.63438 17.4297 8.17737 17.4297C8.17737 17.154 8.17737 16.9261 8.17737 16.6983C8.17737 12.9505 8.17566 9.20438 8.17737 5.45654C8.17737 4.39968 8.50454 4.06909 9.54941 4.06909C12.4819 4.06738 15.4161 4.06909 18.4017 4.06909C18.4017 4.73541 18.4017 5.3846 18.4017 6.10574C15.7141 6.10574 13.0095 6.10574 10.2688 6.10574C10.2688 7.4949 10.2688 8.81384 10.2688 10.1842C26.6647 10.1842 43.0744 10.1842 59.5285 10.1842C59.5285 8.86351 59.5285 7.52916 59.5285 6.14514C46.5481 6.14514 33.5797 6.14514 20.5617 6.14514C20.5617 5.4497 20.5617 4.80051 20.5617 4.06738C20.7792 4.06738 21.0053 4.06738 21.2331 4.06738C34.2101 4.06738 47.187 4.06738 60.1623 4.06738C61.3322 4.06738 61.6268 4.36714 61.6268 5.55932C61.6268 9.26433 61.6268 12.9676 61.6268 16.6726C61.6268 16.9039 61.6268 17.1334 61.6268 17.4297C62.1475 17.4297 62.6117 17.4297 63.0776 17.4297C64.8316 17.4314 65.7378 18.3273 65.7378 20.0659C65.7395 24.9477 65.7378 29.8312 65.7378 34.7129C65.7378 40.7304 65.7378 46.7478 65.7378 52.7652C65.7378 54.5689 64.8556 55.4613 63.0708 55.4613C59.5388 55.463 56.0068 55.4613 52.4251 55.4613C52.4251 54.7882 52.4251 54.139 52.4251 53.4058C52.6443 53.4058 52.8704 53.4058 53.0983 53.4058C56.3956 53.4058 59.6929 53.3956 62.992 53.4161C63.5127 53.4195 63.7011 53.2808 63.6943 52.7327C63.6669 50.5933 63.6823 48.4521 63.6823 46.2613C63.0108 46.2613 62.3616 46.2613 61.6268 46.2613C61.6268 46.5405 61.6268 46.8317 61.6268 47.1229C61.6268 49.2623 61.5942 49.2949 59.4274 49.2949C49.2562 49.2949 39.085 49.2949 28.9138 49.2949C22.5109 49.2949 16.1081 49.2949 9.70529 49.2949C8.44802 49.2949 8.17737 49.0174 8.17737 47.7396C8.17737 47.2514 8.17737 46.7649 8.17737 46.2459C7.48707 46.2459 6.85159 46.2459 6.12189 46.2459C6.12189 46.4446 6.12189 46.6484 6.12189 46.8523C6.12189 48.7793 6.14588 50.7063 6.10819 52.6333C6.0962 53.2602 6.28975 53.4213 6.90468 53.4213C21.1012 53.4058 35.2995 53.4093 49.496 53.4093C49.7478 53.4093 49.9996 53.4093 50.2857 53.4093C50.2857 54.0979 50.2857 54.7316 50.2857 55.4373C47.5913 55.4373 44.8849 55.4373 42.1956 55.4373C41.8633 57.068 42.8654 58.858 44.4909 59.5928C44.9174 59.7864 45.3713 59.9183 45.8133 60.0793C47.3275 60.6292 48.237 61.895 48.2645 63.4948C48.3038 65.6685 48.2319 65.7439 46.0788 65.7439C38.3913 65.7439 30.7055 65.7439 23.018 65.7439C21.8378 65.7439 21.5346 65.4458 21.5432 64.2656C21.5466 63.7758 21.5277 63.2722 21.6219 62.796C21.8874 61.4496 22.7011 60.5469 23.9926 60.0793C24.354 59.9491 24.724 59.8395 25.082 59.699C26.8018 59.0156 27.8141 57.39 27.6668 55.4596ZM10.262 47.1931C26.7196 47.1931 43.1274 47.1931 59.5199 47.1931C59.5199 35.5368 59.5199 23.9251 59.5199 12.3236C43.0761 12.3236 26.6836 12.3236 10.262 12.3236C10.262 23.9525 10.262 35.5488 10.262 47.1931ZM46.2158 63.6576C46.1935 62.8217 45.8595 62.2821 45.1298 62.0132C44.8695 61.9173 44.6023 61.8402 44.3402 61.7477C41.9318 60.8844 40.5067 59.1937 40.0939 56.6655C40.0305 56.275 40.0271 55.8758 39.9963 55.4922C36.5636 55.4922 33.1909 55.4922 29.7822 55.4922C29.7737 55.6429 29.7634 55.7679 29.76 55.8913C29.664 58.7107 28.0847 60.8381 25.4023 61.7631C25.1197 61.8607 24.8302 61.943 24.5562 62.0577C23.8933 62.3386 23.5918 62.8713 23.6449 63.6576C31.1474 63.6576 38.6516 63.6576 46.2158 63.6576ZM8.13112 44.1236C8.13112 35.888 8.13112 27.7037 8.13112 19.4852C7.7029 19.4852 7.31579 19.5229 6.93895 19.4767C6.29318 19.3979 6.10477 19.6274 6.10648 20.2886C6.13046 28.0155 6.12189 35.7441 6.12189 43.471C6.12189 43.6783 6.12189 43.8872 6.12189 44.1236C6.81904 44.1236 7.45281 44.1236 8.13112 44.1236ZM61.6713 19.5298C61.6713 27.75 61.6713 35.9359 61.6713 44.1236C62.3514 44.1236 62.9851 44.1236 63.6823 44.1236C63.6823 43.8427 63.6823 43.5926 63.6823 43.3408C63.6823 35.977 63.6823 28.6133 63.6823 21.2495C63.6823 19.4116 63.6823 19.4116 61.8358 19.4904C61.7964 19.4921 61.7553 19.5092 61.6713 19.5298Z" fill="url(#paint0_linear_115_721)"/>
<path fill-rule="evenodd" clip-rule="evenodd" d="M12.3086 9.15513C12.3086 8.49395 12.3086 7.86189 12.3086 7.19043C12.9783 7.19043 13.6258 7.19043 14.3076 7.19043C14.3076 7.83791 14.3076 8.47168 14.3076 9.15513C13.6738 9.15513 13.0263 9.15513 12.3086 9.15513Z" fill="url(#paint1_linear_115_721)"/>
<path fill-rule="evenodd" clip-rule="evenodd" d="M16.4414 7.1626C17.1163 7.1626 17.7329 7.1626 18.4027 7.1626C18.4027 7.81521 18.4027 8.4627 18.4027 9.15813C17.7775 9.15813 17.13 9.15813 16.4414 9.15813C16.4414 8.5158 16.4414 7.86831 16.4414 7.1626Z" fill="url(#paint2_linear_115_721)"/>
<path fill-rule="evenodd" clip-rule="evenodd" d="M22.5132 9.1928C21.8418 9.1928 21.2252 9.1928 20.5605 9.1928C20.5605 8.53333 20.5605 7.88586 20.5605 7.19385C21.1977 7.19385 21.8435 7.19385 22.5132 7.19385C22.5132 7.86359 22.5132 8.52648 22.5132 9.1928Z" fill="url(#paint3_linear_115_721)"/>
<path fill-rule="evenodd" clip-rule="evenodd" d="M55.4883 9.17175C55.4883 8.50715 55.4883 7.87509 55.4883 7.19678C56.1392 7.19678 56.7867 7.19678 57.4753 7.19678C57.4753 7.84254 57.4753 8.49002 57.4753 9.17175C56.8278 9.17175 56.1957 9.17175 55.4883 9.17175Z" fill="url(#paint4_linear_115_721)"/>
<path fill-rule="evenodd" clip-rule="evenodd" d="M42.4487 26.6792C42.3048 25.9906 42.1695 25.3483 42.0188 24.6237C41.8183 24.6237 41.5666 24.6237 41.3148 24.6237C35.3624 24.6237 29.4084 24.6237 23.456 24.6237C20.9381 24.6237 19.4855 23.1609 19.4838 20.6275C19.4838 19.7488 19.4753 18.8718 19.4855 17.9931C19.5095 15.8999 21.0563 14.3497 23.1614 14.348C30.9979 14.3395 38.8362 14.3395 46.6727 14.3497C48.7402 14.3532 50.2801 15.9016 50.3195 17.9605C50.3229 18.1524 50.3332 18.3459 50.3195 18.5378C50.2407 19.658 50.3726 20.6053 51.2616 21.5268C52.4229 22.731 52.6114 24.3428 52.1917 25.9821C52.154 26.1277 52.1146 26.2715 52.0804 26.4154C52.0752 26.4343 52.0872 26.4565 52.1026 26.5405C53.3599 27.2993 54.6549 28.0804 55.9858 28.8837C55.6244 29.4815 55.2852 30.0416 54.9289 30.6309C53.5654 29.8173 52.2482 29.031 50.9498 28.2551C50.4411 28.5 50.3075 28.8734 50.3109 29.4062C50.3315 34.1817 50.3229 38.9556 50.3229 43.7312C50.3229 44.8685 50.0129 45.1786 48.8789 45.1786C39.5642 45.1786 30.2494 45.1786 20.9346 45.1786C19.7956 45.1786 19.4872 44.8702 19.4872 43.7346C19.4872 38.5308 19.4872 33.327 19.4872 28.1249C19.4872 26.9841 19.7921 26.6775 20.9295 26.6775C27.8462 26.6775 34.7629 26.6775 41.6796 26.6775C41.9314 26.6792 42.1849 26.6792 42.4487 26.6792ZM48.2349 29.6699C46.8937 29.8995 45.7101 29.6511 44.583 29.0293C44.2832 28.8649 43.9132 28.7484 43.5758 28.7467C36.469 28.7313 29.3621 28.7347 22.2553 28.7347C22.0292 28.7347 21.8031 28.7347 21.5924 28.7347C21.5924 33.5822 21.5924 38.3424 21.5924 43.0923C30.4978 43.0923 39.3518 43.0923 48.2366 43.0923C48.2349 38.6182 48.2349 34.1749 48.2349 29.6699ZM48.264 19.545C48.264 19.0294 48.276 18.5189 48.2606 18.0102C48.2332 17.0339 47.6182 16.4052 46.6333 16.4052C38.8191 16.3967 31.0065 16.3984 23.1923 16.4052C22.1765 16.4052 21.5581 17.0373 21.5427 18.0513C21.529 18.9283 21.5376 19.807 21.5393 20.684C21.5427 21.9961 22.1063 22.5648 23.4098 22.5665C26.493 22.57 29.5745 22.5682 32.6578 22.5682C35.7615 22.5682 38.8653 22.5751 41.9708 22.5563C42.2021 22.5545 42.5481 22.4449 42.6474 22.2736C43.8961 20.1188 45.77 19.276 48.264 19.545ZM47.2243 27.7018C48.9286 27.7087 50.3212 26.3127 50.3178 24.6015C50.3144 22.9297 48.9218 21.5405 47.2517 21.5422C45.5662 21.5422 44.1805 22.9023 44.1582 24.5775C44.1359 26.2835 45.5216 27.695 47.2243 27.7018Z" fill="url(#paint5_linear_115_721)"/>
<path fill-rule="evenodd" clip-rule="evenodd" d="M23.625 41.0248C23.625 40.3465 23.625 39.7127 23.625 39.0464C27.712 39.0464 31.7681 39.0464 35.8774 39.0464C35.8774 39.6802 35.8774 40.3294 35.8774 41.0248C31.8212 41.0248 27.7497 41.0248 23.625 41.0248Z" fill="url(#paint6_linear_115_721)"/>
<path fill-rule="evenodd" clip-rule="evenodd" d="M37.9563 34.9482C37.9563 35.6248 37.9563 36.2586 37.9563 36.9249C34.8988 36.9249 31.8686 36.9249 28.7871 36.9249C28.7871 36.2929 28.7871 35.6437 28.7871 34.9482C31.8138 34.9482 34.8576 34.9482 37.9563 34.9482Z" fill="url(#paint7_linear_115_721)"/>
<path fill-rule="evenodd" clip-rule="evenodd" d="M30.8203 32.8026C30.8203 32.1226 30.8203 31.4888 30.8203 30.8242C33.1944 30.8242 35.5377 30.8242 37.934 30.8242C37.934 31.4597 37.934 32.1089 37.934 32.8026C35.589 32.8026 33.2304 32.8026 30.8203 32.8026Z" fill="url(#paint8_linear_115_721)"/>
<path fill-rule="evenodd" clip-rule="evenodd" d="M28.6874 32.8204C26.9847 32.8204 25.3249 32.8204 23.6309 32.8204C23.6309 32.161 23.6309 31.5289 23.6309 30.8438C25.2907 30.8438 26.9659 30.8438 28.6874 30.8438C28.6874 31.469 28.6874 32.1181 28.6874 32.8204Z" fill="url(#paint9_linear_115_721)"/>
<path fill-rule="evenodd" clip-rule="evenodd" d="M23.625 36.9142C23.625 36.2325 23.625 35.5987 23.625 34.9341C24.6288 34.9341 25.6034 34.9341 26.6277 34.9341C26.6277 35.573 26.6277 36.2205 26.6277 36.9142C25.6531 36.9142 24.663 36.9142 23.625 36.9142Z" fill="url(#paint10_linear_115_721)"/>
<path fill-rule="evenodd" clip-rule="evenodd" d="M25.6203 17.4658C25.6203 18.8104 25.6203 20.1277 25.6203 21.4929C24.9762 21.4929 24.327 21.4929 23.6367 21.4929C23.6367 20.1671 23.6367 18.8361 23.6367 17.4658C24.2791 17.4658 24.9111 17.4658 25.6203 17.4658Z" fill="url(#paint11_linear_115_721)"/>
<defs>
<linearGradient id="paint0_linear_115_721" x1="34.9025" y1="4.06738" x2="34.9025" y2="65.7439" gradientUnits="userSpaceOnUse">
<stop stop-color="#9E7D26"/>
<stop offset="1" stop-color="#CEB77D"/>
</linearGradient>
<linearGradient id="paint1_linear_115_721" x1="13.3081" y1="7.19043" x2="13.3081" y2="9.15513" gradientUnits="userSpaceOnUse">
<stop stop-color="#9E7D26"/>
<stop offset="1" stop-color="#CEB77D"/>
</linearGradient>
<linearGradient id="paint2_linear_115_721" x1="17.422" y1="7.1626" x2="17.422" y2="9.15813" gradientUnits="userSpaceOnUse">
<stop stop-color="#9E7D26"/>
<stop offset="1" stop-color="#CEB77D"/>
</linearGradient>
<linearGradient id="paint3_linear_115_721" x1="21.5369" y1="7.19385" x2="21.5369" y2="9.1928" gradientUnits="userSpaceOnUse">
<stop stop-color="#9E7D26"/>
<stop offset="1" stop-color="#CEB77D"/>
</linearGradient>
<linearGradient id="paint4_linear_115_721" x1="56.4818" y1="7.19678" x2="56.4818" y2="9.17175" gradientUnits="userSpaceOnUse">
<stop stop-color="#9E7D26"/>
<stop offset="1" stop-color="#CEB77D"/>
</linearGradient>
<linearGradient id="paint5_linear_115_721" x1="37.7331" y1="14.3418" x2="37.7331" y2="45.1786" gradientUnits="userSpaceOnUse">
<stop stop-color="#9E7D26"/>
<stop offset="1" stop-color="#CEB77D"/>
</linearGradient>
<linearGradient id="paint6_linear_115_721" x1="29.7512" y1="39.0464" x2="29.7512" y2="41.0248" gradientUnits="userSpaceOnUse">
<stop stop-color="#9E7D26"/>
<stop offset="1" stop-color="#CEB77D"/>
</linearGradient>
<linearGradient id="paint7_linear_115_721" x1="33.3717" y1="34.9482" x2="33.3717" y2="36.9249" gradientUnits="userSpaceOnUse">
<stop stop-color="#9E7D26"/>
<stop offset="1" stop-color="#CEB77D"/>
</linearGradient>
<linearGradient id="paint8_linear_115_721" x1="34.3772" y1="30.8242" x2="34.3772" y2="32.8026" gradientUnits="userSpaceOnUse">
<stop stop-color="#9E7D26"/>
<stop offset="1" stop-color="#CEB77D"/>
</linearGradient>
<linearGradient id="paint9_linear_115_721" x1="26.1591" y1="30.8438" x2="26.1591" y2="32.8204" gradientUnits="userSpaceOnUse">
<stop stop-color="#9E7D26"/>
<stop offset="1" stop-color="#CEB77D"/>
</linearGradient>
<linearGradient id="paint10_linear_115_721" x1="25.1264" y1="34.9341" x2="25.1264" y2="36.9142" gradientUnits="userSpaceOnUse">
<stop stop-color="#9E7D26"/>
<stop offset="1" stop-color="#CEB77D"/>
</linearGradient>
<linearGradient id="paint11_linear_115_721" x1="24.6285" y1="17.4658" x2="24.6285" y2="21.4929" gradientUnits="userSpaceOnUse">
<stop stop-color="#9E7D26"/>
<stop offset="1" stop-color="#CEB77D"/>
</linearGradient>
</defs>
</svg>
